Slevovy kupon;1 - 2; 1 - 3; 4 - 2; 4- 3;
Kontrola kuponu;2 - 4; 2 - 5;
Sleva na vek;3 - 6; 3 - 7; 5 - 6; 5 - 7; 9 - 6; 9 - 7;
Kontrola podminek;6 - 8; 6 - 9;
Metoda platby (prevodem);7 - 10; 7 - 11; 8 - 10; 8 - 11; 13 - 10; 13 - 11;
Metoda platby (online);11 - 12; 11 - 13;
